myans/fir.vcd
$date
   Sat Oct 21 21:30:12 2023
$end
$version
  2022.1
$end
$timescale
  1ps
$end
$scope module fir_tb $end
$var wire 1 ! awready $end
$var wire 1 " wready $end
$var reg 1 # awvalid $end
$var reg 12 $ awaddr [11:0] $end
$var reg 1 % wvalid $end
$var reg 32 & wdata [31:0] $end
$var wire 1 ' arready $end
$var reg 1 ( rready $end
$var reg 1 ) arvalid $end
$var reg 12 * araddr [11:0] $end
$var wire 1 + rvalid $end
$var wire 32 , rdata [31:0] $end
$var reg 1 - ss_tvalid $end
$var reg 32 . ss_tdata [31:0] $end
$var reg 1 / ss_tlast $end
$var wire 1 0 ss_tready $end
$var reg 1 1 sm_tready $end
$var wire 1 2 sm_tvalid $end
$var wire 32 3 sm_tdata [31:0] $end
$var wire 1 4 sm_tlast $end
$var reg 1 5 axis_clk $end
$var reg 1 6 axis_rst_n $end
$var wire 4 7 tap_WE [3:0] $end
$var wire 1 8 tap_EN $end
$var wire 32 9 tap_Di [31:0] $end
$var wire 12 : tap_A [11:0] $end
$var wire 32 ; tap_Do [31:0] $end
$var wire 4 < data_WE [3:0] $end
$var wire 1 = data_EN $end
$var wire 32 > data_Di [31:0] $end
$var wire 12 ? data_A [11:0] $end
$var wire 32 @ data_Do [31:0] $end
$var reg 1 A error_coef $end
$var reg 32 B data_length [31:0] $end
$var integer 32 C Din [31:0] $end
$var integer 32 D golden [31:0] $end
$var integer 32 E input_data [31:0] $end
$var integer 32 F golden_data [31:0] $end
$var integer 32 G m [31:0] $end
$var integer 32 H i [31:0] $end
$var integer 32 I k [31:0] $end
$var reg 1 J error $end
$var integer 32 K timeout [31:0] $end
$scope module fir_DUT $end
$var wire 1 ! awready $end
$var wire 1 " wready $end
$var wire 1 L awvalid $end
$var wire 12 M awaddr [11:0] $end
$var wire 1 N wvalid $end
$var wire 32 O wdata [31:0] $end
$var wire 1 ' arready $end
$var wire 1 P rready $end
$var wire 1 Q arvalid $end
$var wire 12 R araddr [11:0] $end
$var wire 1 + rvalid $end
$var wire 32 , rdata [31:0] $end
$var wire 1 S ss_tvalid $end
$var wire 32 T ss_tdata [31:0] $end
$var wire 1 U ss_tlast $end
$var wire 1 0 ss_tready $end
$var wire 1 V sm_tready $end
$var wire 1 2 sm_tvalid $end
$var wire 32 3 sm_tdata [31:0] $end
$var wire 1 4 sm_tlast $end
$var wire 4 7 tap_WE [3:0] $end
$var wire 1 8 tap_EN $end
$var wire 32 9 tap_Di [31:0] $end
$var wire 12 : tap_A [11:0] $end
$var wire 32 ; tap_Do [31:0] $end
$var wire 4 < data_WE [3:0] $end
$var wire 1 = data_EN $end
$var wire 32 > data_Di [31:0] $end
$var wire 12 ? data_A [11:0] $end
$var wire 32 @ data_Do [31:0] $end
$var wire 1 W axis_clk $end
$var wire 1 X axis_rst_n $end
$var reg 3 Y FIR_STATE [2:0] $end
$var reg 1 Z ap_start $end
$var reg 1 [ ap_idle $end
$var reg 1 \ ap_done $end
$var reg 2 ] addr_reg_R [1:0] $end
$var reg 4 ^ tap_count [3:0] $end
$var reg 4 _ data_count [3:0] $end
$var reg 1 ` AWW_STATE $end
$var reg 1 a next_state_AWW $end
$var reg 1 b ARR_STATE $end
$var reg 1 c next_state_ARR $end
$var reg 2 d addr_reg_W [1:0] $end
$var reg 32 e data_length [31:0] $end
$var reg 2 f WoR_tap [1:0] $end
$var reg 4 g data_WE_reg [3:0] $end
$var reg 1 h data_EN_reg $end
$var reg 32 i tap_A_reg [31:0] $end
$var reg 32 j data_A_reg [31:0] $end
$var reg 1 k awready_reg $end
$var reg 1 l wready_reg $end
$var reg 1 m arready_reg $end
$var reg 1 n rvalid_reg $end
$var reg 32 o rdata_reg [31:0] $end
$var reg 32 p tap_Di_reg [31:0] $end
$var reg 4 q tap_WE_reg [3:0] $end
$var reg 1 r tap_EN_reg $end
$var reg 1 s ss_tready_reg $end
$var reg 32 t data_Di_reg [31:0] $end
$var reg 1 u Resetn_fir $end
$var wire 1 v Done_fir $end
$var reg 1 w sm_tvalid_reg $end
$var reg 1 x sm_tlast_reg $end
$var reg 2 y Last [1:0] $end
$scope module FIR_kernel $end
$var wire 32 @ X [31:0] $end
$var wire 32 ; tap [31:0] $end
$var wire 1 W CLK $end
$var wire 1 z Resetn $end
$var reg 32 { Y [31:0] $end
$var wire 1 v Done $end
$var reg 4 | Done_count [3:0] $end
$upscope $end
$upscope $end
$scope module tap_RAM $end
$var wire 1 } CLK $end
$var wire 4 7 WE [3:0] $end
$var wire 1 8 EN $end
$var wire 32 9 Di [31:0] $end
$var wire 32 ; Do [31:0] $end
$var wire 12 : A [11:0] $end
$var reg 12 ~ r_A [11:0] $end
$scope begin Block26_19 $end
$var integer 32 !! i [31:0] $end
$upscope $end
$upscope $end
$scope module data_RAM $end
$var wire 1 "! CLK $end
$var wire 4 < WE [3:0] $end
$var wire 1 = EN $end
$var wire 32 > Di [31:0] $end
$var wire 32 @ Do [31:0] $end
$var wire 12 ? A [11:0] $end
$var reg 12 #! r_A [11:0] $end
$scope begin Block26_19 $end
$var integer 32 $! i [31:0] $end
$upscope $end
$upscope $end
$scope task config_write $end
$var reg 12 %! addr [11:0] $end
$var reg 32 &! data [31:0] $end
$upscope $end
$scope task config_read_check $end
$var reg 12 '! addr [11:0] $end
$var reg 32 (! exp_data [31:0] $end
$var reg 32 )! mask [31:0] $end
$upscope $end
$scope task ss $end
$var reg 32 *! in1 [31:0] $end
$upscope $end
$scope task sm $end
$var reg 32 +! in2 [31:0] $end
$var reg 32 ,! pcnt [31:0] $end
$upscope $end
$upscope $end
$enddefinitions $end
#0
$dumpvars
1!
b1011 !!
0"
0"!
0#
bx #!
bx $
b1011 $!
0%
b10000 %!
bx &
b1001011000 &!
1'
bx '!
x(
bx (!
x)
bx )!
bx *
b1 *!
0+
bx +!
bx ,
bx ,!
1-
b1 .
0/
00
11
02
b0 3
04
05
06
b0 7
08
bx 9
b0 :
b0 ;
b0 <
0=
bx >
b0 ?
b0 @
0A
b1001011000 B
b11111111111111111011000111100000 C
b11111111111111111011000111100001 D
b1 E
b1 F
b1001011000 G
b0 H
bx I
0J
b11110100001001000000 K
0L
bx M
0N
bx O
xP
xQ
bx R
1S
b1 T
0U
1V
0W
0X
b0 Y
0Z
1[
0\
b11 ]
b0 ^
b0 _
0`
0a
0b
xc
b11 d
b0 e
b0 f
b0 g
0h
b0 i
b0 j
1k
0l
1m
0n
bx o
bx p
b0 q
0r
0s
bx t
0u
0v
0w
0x
b0 y
0z
b0 {
b1 |
0}
bx ~
$end
#5000
1"!
1#
b0 #!
b10000 $
1%
b1001011000 &
15
b0 ;
b0 @
b11110100001000111111 K
1L
b10000 M
1N
b1001011000 O
1W
b0 Y
1[
b11 ]
b0 ^
b0 _
0`
1a
0b
b11 d
b0 e
b0 f
b0 g
0h
0s
0u
0w
0x
b0 {
b1 |
1}
b0 ~
#10000
0"!
05
0W
0}
#15000
0!
1"
1"!
b0 #!
15
16
b11110100001000111110 K
1W
1X
b0 Y
1[
0\
1`
0a
xb
0c
b1 d
b1001011000 e
b0 f
0h
0k
1l
0s
0u
0w
0x
b0 {
b1 |
1}
b0 ~
#20000
0"!
05
0W
0}
#25000
1!
0"
1"!
0#
b0 #!
0%
b100000 %!
b0 &!
15
b0 I
b11110100001000111101 K
0L
0N
1W
b0 Y
1[
0\
0`
0b
xc
b0 f
0h
1k
0l
0s
0u
0w
0x
b0 {
b1 |
1}
b0 ~
#30000
0"!
05
0W
0}
#35000
1"!
1#
b0 #!
b100000 $
1%
b0 &
15
b11110100001000111100 K
1L
b100000 M
1N
b0 O
1W
b0 Y
1[
0\
0`
1a
xb
0c
b0 f
0h
0s
0u
0w
0x
b0 {
b1 |
1}
b0 ~
#40000
0"!
05
0W
0}
#45000
0!
1"
1"!
b0 #!
15
b1111 7
18
b0 9
b0 ;
b11110100001000111011 K
1W
b0 Y
1[
0\
1`
0a
0b
xc
b10 d
b10 f
0h
0k
1l
b0 p
b1111 q
1r
0s
0u
0w
0x
b0 {
b1 |
1}
b0 ~
#50000
0"!
05
0W
0}
#55000
1!
0"
1"!
0#
b0 #!
0%
b100100 %!
b11111111111111111111111111110110 &!
15
b0 7
08
b100 :
b0 ;
b1 I
b11110100001000111010 K
0L
0N
1W
b0 Y
1[
0\
b1 ^
0`
xb
0c
b0 f
0h
b100 i
b0 j
1k
0l
b0 q
0r
0s
0u
0w
0x
b0 {
b1 |
1}
b0 ~
#60000
0"!
05
0W
0}
#65000
1"!
1#
b0 #!
b100100 $
1%
b11111111111111111111111111110110 &
15
b0 ;
b11110100001000111001 K
1L
b100100 M
1N
b11111111111111111111111111110110 O
1W
b0 Y
1[
0\
0`
1a
0b
xc
b0 f
0h
0s
0u
0w
0x
b0 {
b1 |
1}
b100 ~
#70000
0"!
05
0W
0}
#75000
0!
1"
1"!
b0 #!
15
b1111 7
18
b11111111111111111111111111110110 9
b0 ;
b11110100001000111000 K
1W
b0 Y
1[
0\
1`
0a
xb
0c
b10 d
b10 f
0h
0k
1l
b11111111111111111111111111110110 p
b1111 q
1r
0s
0u
0w
0x
b0 {
b1 |
1}
b100 ~
#80000
0"!
05
0W
0}
#85000
1!
0"
1"!
0#
b0 #!
0%
b101000 %!
b11111111111111111111111111110111 &!
15
b0 7
08
b1000 :
b0 ;
b10 I
b11110100001000110111 K
0L
0N
1W
b0 Y
1[
0\
b10 ^
0`
0b
xc
b0 f
0h
b1000 i
b0 j
1k
0l
b0 q
0r
0s
0u
0w
0x
b0 {
b1 |
1}
b100 ~
#90000
0"!
05
0W
0}
#95000
1"!
1#
b0 #!
b101000 $
1%
b11111111111111111111111111110111 &
15
b0 ;
b11110100001000110110 K
1L
b101000 M
1N
b11111111111111111111111111110111 O
1W
b0 Y
1[
0\
0`
1a
xb
0c
b0 f
0h
0s
0u
0w
0x
b0 {
b1 |
1}
b1000 ~
#100000
0"!
05
0W
0}
#105000
0!
1"
1"!
b0 #!
15
b1111 7
18
b11111111111111111111111111110111 9
b0 ;
b11110100001000110101 K
1W
b0 Y
1[
0\
1`
0a
0b
xc
b10 d
b10 f
0h
0k
1l
b11111111111111111111111111110111 p
b1111 q
1r
0s
0u
0w
0x
b0 {
b1 |
1}
b1000 ~
#110000
0"!
05
0W
0}
#115000
1!
0"
1"!
0#
b0 #!
0%
b101100 %!
b10111 &!
15
b0 7
08
b1100 :
b0 ;
b11 I
b11110100001000110100 K
0L
0N
1W
b0 Y
1[
0\
b11 ^
0`
xb
0c
b0 f
0h
b1100 i
b0 j
1k
0l
b0 q
0r
0s
0u
0w
0x
b0 {
b1 |
1}
b1000 ~
#120000
0"!
05
0W
0}
#125000
1"!
1#
b0 #!
b101100 $
1%
b10111 &
15
b0 ;
b11110100001000110011 K
1L
b101100 M
1N
b10111 O
1W
b0 Y
1[
0\
0`
1a
0b
xc
b0 f
0h
0s
0u
0w
0x
b0 {
b1 |
1}
b1100 ~
#130000
0"!
05
0W
0}
#135000
0!
1"
1"!
b0 #!
15
b1111 7
18
b10111 9
b0 ;
b11110100001000110010 K
1W
b0 Y
1[
0\
1`
0a
xb
0c
b10 d
b10 f
0h
0k
1l
b10111 p
b1111 q
1r
0s
0u
0w
0x
b0 {
b1 |
1}
b1100 ~
#140000
0"!
05
0W
0}
#145000
1!
0"
1"!
0#
b0 #!
0%
b110000 %!
b111000 &!
15
b0 7
08
b10000 :
b0 ;
b100 I
b11110100001000110001 K
0L
0N
1W
b0 Y
1[
0\
b100 ^
0`
0b
xc
b0 f
0h
b10000 i
b0 j
1k
0l
b0 q
0r
0s
0u
0w
0x
b0 {
b1 |
1}
b1100 ~
#150000
0"!
05
0W
0}
#155000
1"!
1#
b0 #!
b110000 $
1%
b111000 &
15
b0 ;
b11110100001000110000 K
1L
b110000 M
1N
b111000 O
1W
b0 Y
1[
0\
0`
1a
xb
0c
b0 f
0h
0s
0u
0w
0x
b0 {
b1 |
1}
b10000 ~
#160000
0"!
05
0W
0}
#165000
0!
1"
1"!
b0 #!
15
b1111 7
18
b111000 9
b0 ;
b11110100001000101111 K
1W
b0 Y
1[
0\
1`
0a
0b
xc
b10 d
b10 f
0h
0k
1l
b111000 p
b1111 q
1r
0s
0u
0w
0x
b0 {
b1 |
1}
b10000 ~
#170000
0"!
05
0W
0}
#175000
1!
0"
1"!
0#
b0 #!
0%
b110100 %!
b111111 &!
15
b0 7
08
b10100 :
b0 ;
b101 I
b11110100001000101110 K
0L
0N
1W
b0 Y
1[
0\
b101 ^
0`
xb
0c
b0 f
0h
b10100 i
b0 j
1k
0l
b0 q
0r
0s
0u
0w
0x
b0 {
b1 |
1}
b10000 ~
#180000
0"!
05
0W
0}
#185000
1"!
1#
b0 #!
b110100 $
1%
b111111 &
15
b0 ;
b11110100001000101101 K
1L
b110100 M
1N
b111111 O
1W
b0 Y
1[
0\
0`
1a
0b
xc
b0 f
0h
0s
0u
0w
0x
b0 {
b1 |
1}
b10100 ~
#190000
0"!
05
0W
0}
#195000
0!
1"
1"!
b0 #!
15
b1111 7
18
b111111 9
b0 ;
b11110100001000101100 K
1W
b0 Y
1[
0\
1`
0a
xb
0c
b10 d
b10 f
0h
0k
1l
b111111 p
b1111 q
1r
0s
0u
0w
0x
b0 {
b1 |
1}
b10100 ~
#200000
0"!
05
0W
0}
#205000
1!
0"
1"!
0#
b0 #!
0%
b111000 %!
b111000 &!
15
b0 7
08
b11000 :
b0 ;
b110 I
b11110100001000101011 K
0L
0N
1W
b0 Y
1[
0\
b110 ^
0`
0b
xc
b0 f
0h
b11000 i
b0 j
1k
0l
b0 q
0r
0s
0u
0w
0x
b0 {
b1 |
1}
b10100 ~
#210000
0"!
05
0W
0}
#215000
1"!
1#
b0 #!
b111000 $
1%
b111000 &
15
b0 ;
b11110100001000101010 K
1L
b111000 M
1N
b111000 O
1W
b0 Y
1[
0\
0`
1a
xb
0c
b0 f
0h
0s
0u
0w
0x
b0 {
b1 |
1}
b11000 ~
#220000
0"!
05
0W
0}
#225000
0!
1"
1"!
b0 #!
15
b1111 7
18
b111000 9
b0 ;
b11110100001000101001 K
1W
b0 Y
1[
0\
1`
0a
0b
xc
b10 d
b10 f
0h
0k
1l
b111000 p
b1111 q
1r
0s
0u
0w
0x
b0 {
b1 |
1}
b11000 ~
#230000
0"!
05
0W
0}
#235000
1!
0"
1"!
0#
b0 #!
0%
b111100 %!
b10111 &!
15
b0 7
08
b11100 :
b0 ;
b111 I
b11110100001000101000 K
0L
0N
1W
b0 Y
1[
0\
b111 ^
0`
xb
0c
b0 f
0h
b11100 i
b0 j
1k
0l
b0 q
0r
0s
0u
0w
0x
b0 {
b1 |
1}
b11000 ~
#240000
0"!
05
0W
0}
#245000
1"!
1#
b0 #!
b111100 $
1%
b10111 &
15
b0 ;
b11110100001000100111 K
1L
b111100 M
1N
b10111 O
1W
b0 Y
1[
0\
0`
1a
0b
xc
b0 f
0h
0s
0u
0w
0x
b0 {
b1 |
1}
b11100 ~
#250000
0"!
05
0W
0}
#255000
0!
1"
1"!
b0 #!
15
b1111 7
18
b10111 9
b0 ;
b11110100001000100110 K
1W
b0 Y
1[
0\
1`
0a
xb
0c
b10 d
b10 f
0h
0k
1l
b10111 p
b1111 q
1r
0s
0u
0w
0x
b0 {
b1 |
1}
b11100 ~
#260000
0"!
05
0W
0}
#265000
1!
0"
1"!
0#
b0 #!
0%
b1000000 %!
b11111111111111111111111111110111 &!
15
b0 7
08
b100000 :
b0 ;
b1000 I
b11110100001000100101 K
0L
0N
1W
b0 Y
1[
0\
b1000 ^
0`
0b
xc
b0 f
0h
b100000 i
b0 j
1k
0l
b0 q
0r
0s
0u
0w
0x
b0 {
b1 |
1}
b11100 ~
#270000
0"!
05
0W
0}
#275000
1"!
1#
b0 #!
b1000000 $
1%
b11111111111111111111111111110111 &
15
b0 ;
b11110100001000100100 K
1L
b1000000 M
1N
b11111111111111111111111111110111 O
1W
b0 Y
1[
0\
0`
1a
xb
0c
b0 f
0h
0s
0u
0w
0x
b0 {
b1 |
1}
b100000 ~
#280000
0"!
05
0W
0}
#285000
0!
1"
1"!
b0 #!
15
b1111 7
18
b11111111111111111111111111110111 9
b0 ;
b11110100001000100011 K
1W
b0 Y
1[
0\
1`
0a
0b
xc
b10 d
b10 f
0h
0k
1l
b11111111111111111111111111110111 p
b1111 q
1r
0s
0u
0w
0x
b0 {
b1 |
1}
b100000 ~
#290000
0"!
05
0W
0}
#295000
1!
0"
1"!
0#
b0 #!
0%
b1000100 %!
b11111111111111111111111111110110 &!
15
b0 7
08
b100100 :
b0 ;
b1001 I
b11110100001000100010 K
0L
0N
1W
b0 Y
1[
0\
b1001 ^
0`
xb
0c
b0 f
0h
b100100 i
b0 j
1k
0l
b0 q
0r
0s
0u
0w
0x
b0 {
b1 |
1}
b100000 ~
#300000
0"!
05
0W
0}
#305000
1"!
1#
b0 #!
b1000100 $
1%
b11111111111111111111111111110110 &
15
b0 ;
b11110100001000100001 K
1L
b1000100 M
1N
b11111111111111111111111111110110 O
1W
b0 Y
1[
0\
0`
1a
0b
xc
b0 f
0h
0s
0u
0w
0x
b0 {
b1 |
1}
b100100 ~
#310000
0"!
05
0W
0}
#315000
0!
1"
1"!
b0 #!
15
b1111 7
18
b11111111111111111111111111110110 9
b0 ;
b11110100001000100000 K
1W
b0 Y
1[
0\
1`
0a
xb
0c
b10 d
b10 f
0h
0k
1l
b11111111111111111111111111110110 p
b1111 q
1r
0s
0u
0w
0x
b0 {
b1 |
1}
b100100 ~
#320000
0"!
05
0W
0}
#325000
1!
0"
1"!
0#
b0 #!
0%
b1001000 %!
b0 &!
15
b0 7
08
b101000 :
b0 ;
b1010 I
b11110100001000011111 K
0L
0N
1W
b0 Y
1[
0\
b1010 ^
0`
0b
xc
b0 f
0h
b101000 i
b0 j
1k
0l
b0 q
0r
0s
0u
0w
0x
b0 {
b1 |
1}
b100100 ~
#330000
0"!
05
0W
0}
#335000
1"!
1#
b0 #!
b1001000 $
1%
b0 &
15
b0 ;
b11110100001000011110 K
1L
b1001000 M
1N
b0 O
1W
b0 Y
1[
0\
0`
1a
xb
0c
b0 f
0h
0s
0u
0w
0x
b0 {
b1 |
1}
b101000 ~
#340000
0"!
05
0W
0}
#345000
0!
1"
1"!
b0 #!
15
b1111 7
18
b0 9
b0 ;
b11110100001000011101 K
1W
b0 Y
1[
0\
1`
0a
0b
xc
b10 d
b10 f
0h
0k
1l
b0 p
b1111 q
1r
0s
0u
0w
0x
b0 {
b1 |
1}
b101000 ~
#350000
0"!
05
0W
0}
#355000
1!
0"
1"!
0#
b0 #!
0%
b100000 '!
b0 (!
0)
b11111111111111111111111111111111 )!
15
b0 7
08
b0 :
b0 ;
b0 I
b11110100001000011100 K
0L
0N
0Q
1W
b0 Y
1[
0\
b0 ^
0`
xb
0c
b0 f
0h
b0 i
b0 j
1k
0l
b0 q
0r
0s
0u
0w
0x
b0 {
b1 |
1}
b101000 ~
#360000
0"!
05
0W
0}
#365000
1"!
b0 #!
1(
1)
b100000 *
15
b0 ;
b11110100001000011011 K
1P
1Q
b100000 R
1W
b0 Y
1[
0\
0`
0b
1c
b0 f
0h
0s
0u
0w
0x
b0 {
b1 |
1}
b0 ~
#370000
0"!
05
0W
0}
#375000
1"!
b0 #!
0'
1+
b0 ,
15
18
b0 ;
b11110100001000011010 K
1W
b0 Y
1[
0\
b10 ]
0`
1b
0c
b1 f
0h
0m
1n
b0 o
b0 q
1r
0s
0u
0w
0x
b0 {
b1 |
1}
b0 ~
#380000
0"!
05
0W
0}
#385000
1"!
b0 #!
1'
b100100 '!
b11111111111111111111111111110110 (!
0)
b11111111111111111111111111111111 )!
0+
15
08
b100 :
b0 ;
b1 I
b11110100001000011001 K
0Q
1W
b0 Y
1[
0\
b1 ^
0`
0b
b0 f
0h
b100 i
b0 j
1m
0n
b0 q
0r
0s
0u
0w
0x
b0 {
b1 |
1}
b0 ~
#390000
0"!
05
0W
0}
#395000
1"!
b0 #!
1(
1)
b100100 *
15
b0 ;
b11110100001000011000 K
1Q
b100100 R
1W
b0 Y
1[
0\
0`
0b
1c
b0 f
0h
0s
0u
0w
0x
b0 {
b1 |
1}
b100 ~
#400000
0"!
05
0W
0}
#405000
1"!
b0 #!
0'
1+
b11111111111111111111111111110110 ,
15
18
b11111111111111111111111111110110 ;
b11110100001000010111 K
1W
b0 Y
1[
0\
b10 ]
0`
1b
0c
b1 f
0h
0m
1n
b11111111111111111111111111110110 o
b0 q
1r
0s
0u
0w
0x
b0 {
b1 |
1}
b100 ~
#410000
0"!
05
0W
0}
#415000
1"!
b0 #!
1'
b101000 '!
b11111111111111111111111111110111 (!
0)
b11111111111111111111111111111111 )!
0+
15
08
b1000 :
b0 ;
b10 I
b11110100001000010110 K
0Q
1W
b0 Y
1[
0\
b10 ^
0`
0b
b0 f
0h
b1000 i
b0 j
1m
0n
b0 q
0r
0s
0u
0w
0x
b0 {
b1 |
1}
b100 ~
#420000
0"!
05
0W
0}
#425000
1"!
b0 #!
1(
1)
b101000 *
15
b0 ;
b11110100001000010101 K
1Q
b101000 R
1W
b0 Y
1[
0\
0`
0b
1c
b0 f
0h
0s
0u
0w
0x
b0 {
b1 |
1}
b1000 ~
#430000
0"!
05
0W
0}
#435000
1"!
b0 #!
0'
1+
b11111111111111111111111111110111 ,
15
18
b11111111111111111111111111110111 ;
b11110100001000010100 K
1W
b0 Y
1[
0\
b10 ]
0`
1b
0c
b1 f
0h
0m
1n
b11111111111111111111111111110111 o
b0 q
1r
0s
0u
0w
0x
b0 {
b1 |
1}
b1000 ~
#440000
0"!
05
0W
0}
#445000
1"!
b0 #!
1'
b101100 '!
b10111 (!
0)
b11111111111111111111111111111111 )!
0+
15
08
b1100 :
b0 ;
b11 I
b11110100001000010011 K
0Q
1W
b0 Y
1[
0\
b11 ^
0`
0b
b0 f
0h
b1100 i
b0 j
1m
0n
b0 q
0r
0s
0u
0w
0x
b0 {
b1 |
1}
b1000 ~
#450000
0"!
05
0W
0}
#455000
1"!
b0 #!
1(
1)
b101100 *
15
b0 ;
b11110100001000010010 K
1Q
b101100 R
1W
b0 Y
1[
0\
0`
0b
1c
b0 f
0h
0s
0u
0w
0x
b0 {
b1 |
1}
b1100 ~
#460000
0"!
05
0W
0}
#465000
1"!
b0 #!
0'
1+
b10111 ,
15
18
b10111 ;
b11110100001000010001 K
1W
b0 Y
1[
0\
b10 ]
0`
1b
0c
b1 f
0h
0m
1n
b10111 o
b0 q
1r
0s
0u
0w
0x
b0 {
b1 |
1}
b1100 ~
#470000
0"!
05
0W
0}
#475000
1"!
b0 #!
1'
b110000 '!
b111000 (!
0)
b11111111111111111111111111111111 )!
0+
15
08
b10000 :
b0 ;
b100 I
b11110100001000010000 K
0Q
1W
b0 Y
1[
0\
b100 ^
0`
0b
b0 f
0h
b10000 i
b0 j
1m
0n
b0 q
0r
0s
0u
0w
0x
b0 {
b1 |
1}
b1100 ~
#480000
0"!
05
0W
0}
#485000
1"!
b0 #!
1(
1)
b110000 *
15
b0 ;
b11110100001000001111 K
1Q
b110000 R
1W
b0 Y
1[
0\
0`
0b
1c
b0 f
0h
0s
0u
0w
0x
b0 {
b1 |
1}
b10000 ~
#490000
0"!
05
0W
0}
#495000
1"!
b0 #!
0'
1+
b111000 ,
15
18
b111000 ;
b11110100001000001110 K
1W
b0 Y
1[
0\
b10 ]
0`
1b
0c
b1 f
0h
0m
1n
b111000 o
b0 q
1r
0s
0u
0w
0x
b0 {
b1 |
1}
b10000 ~
#500000
0"!
05
0W
0}
#505000
1"!
b0 #!
1'
b110100 '!
b111111 (!
0)
b11111111111111111111111111111111 )!
0+
15
08
b10100 :
b0 ;
b101 I
b11110100001000001101 K
0Q
1W
b0 Y
1[
0\
b101 ^
0`
0b
b0 f
0h
b10100 i
b0 j
1m
0n
b0 q
0r
0s
0u
0w
0x
b0 {
b1 |
1}
b10000 ~
#510000
0"!
05
0W
0}
#515000
1"!
b0 #!
1(
1)
b110100 *
15
b0 ;
b11110100001000001100 K
1Q
b110100 R
1W
b0 Y
1[
0\
0`
0b
1c
b0 f
0h
0s
0u
0w
0x
b0 {
b1 |
1}
b10100 ~
#520000
0"!
05
0W
0}
#525000
1"!
b0 #!
0'
1+
b111111 ,
15
18
b111111 ;
b11110100001000001011 K
1W
b0 Y
1[
0\
b10 ]
0`
1b
0c
b1 f
0h
0m
1n
b111111 o
b0 q
1r
0s
0u
0w
0x
b0 {
b1 |
1}
b10100 ~
#530000
0"!
05
0W
0}
#535000
1"!
b0 #!
1'
b111000 '!
b111000 (!
0)
b11111111111111111111111111111111 )!
0+
15
08
b11000 :
b0 ;
b110 I
b11110100001000001010 K
0Q
1W
b0 Y
1[
0\
b110 ^
0`
0b
b0 f
0h
b11000 i
b0 j
1m
0n
b0 q
0r
0s
0u
0w
0x
b0 {
b1 |
1}
b10100 ~
#540000
0"!
05
0W
0}
#545000
1"!
b0 #!
1(
1)
b111000 *
15
b0 ;
b11110100001000001001 K
1Q
b111000 R
1W
b0 Y
1[
0\
0`
0b
1c
b0 f
0h
0s
0u
0w
0x
b0 {
b1 |
1}
b11000 ~
#550000
0"!
05
0W
0}
#555000
1"!
b0 #!
0'
1+
b111000 ,
15
18
b111000 ;
b11110100001000001000 K
1W
b0 Y
1[
0\
b10 ]
0`
1b
0c
b1 f
0h
0m
1n
b111000 o
b0 q
1r
0s
0u
0w
0x
b0 {
b1 |
1}
b11000 ~
#560000
0"!
05
0W
0}
#565000
1"!
b0 #!
1'
b111100 '!
b10111 (!
0)
b11111111111111111111111111111111 )!
0+
15
08
b11100 :
b0 ;
b111 I
b11110100001000000111 K
0Q
1W
b0 Y
1[
0\
b111 ^
0`
0b
b0 f
0h
b11100 i
b0 j
1m
0n
b0 q
0r
0s
0u
0w
0x
b0 {
b1 |
1}
b11000 ~
#570000
0"!
05
0W
0}
#575000
1"!
b0 #!
1(
1)
b111100 *
15
b0 ;
b11110100001000000110 K
1Q
b111100 R
1W
b0 Y
1[
0\
0`
0b
1c
b0 f
0h
0s
0u
0w
0x
b0 {
b1 |
1}
b11100 ~
#580000
0"!
05
0W
0}
#585000
1"!
b0 #!
0'
1+
b10111 ,
15
18
b10111 ;
b11110100001000000101 K
1W
b0 Y
1[
0\
b10 ]
0`
1b
0c
b1 f
0h
0m
1n
b10111 o
b0 q
1r
0s
0u
0w
0x
b0 {
b1 |
1}
b11100 ~
#590000
0"!
05
0W
0}
#595000
1"!
b0 #!
1'
b1000000 '!
b11111111111111111111111111110111 (!
0)
b11111111111111111111111111111111 )!
0+
15
08
b100000 :
b0 ;
b1000 I
b11110100001000000100 K
0Q
1W
b0 Y
1[
0\
b1000 ^
0`
0b
b0 f
0h
b100000 i
b0 j
1m
0n
b0 q
0r
0s
0u
0w
0x
b0 {
b1 |
1}
b11100 ~
#600000
0"!
05
0W
0}
#605000
1"!
b0 #!
1(
1)
b1000000 *
15
b0 ;
b11110100001000000011 K
1Q
b1000000 R
1W
b0 Y
1[
0\
0`
0b
1c
b0 f
0h
0s
0u
0w
0x
b0 {
b1 |
1}
b100000 ~
#610000
0"!
05
0W
0}
#615000
1"!
b0 #!
0'
1+
b11111111111111111111111111110111 ,
15
18
b11111111111111111111111111110111 ;
b11110100001000000010 K
1W
b0 Y
1[
0\
b10 ]
0`
1b
0c
b1 f
0h
0m
1n
b11111111111111111111111111110111 o
b0 q
1r
0s
0u
0w
0x
b0 {
b1 |
1}
b100000 ~
#620000
0"!
05
0W
0}
#625000
1"!
b0 #!
1'
b1000100 '!
b11111111111111111111111111110110 (!
0)
b11111111111111111111111111111111 )!
0+
15
08
b100100 :
b0 ;
b1001 I
b11110100001000000001 K
0Q
1W
b0 Y
1[
0\
b1001 ^
0`
0b
b0 f
0h
b100100 i
b0 j
1m
0n
b0 q
0r
0s
0u
0w
0x
b0 {
b1 |
1}
b100000 ~
#630000
0"!
05
0W
0}
#635000
1"!
b0 #!
1(
1)
b1000100 *
15
b0 ;
b11110100001000000000 K
1Q
b1000100 R
1W
b0 Y
1[
0\
0`
0b
1c
b0 f
0h
0s
0u
0w
0x
b0 {
b1 |
1}
b100100 ~
#640000
0"!
05
0W
0}
#645000
1"!
b0 #!
0'
1+
b11111111111111111111111111110110 ,
15
18
b11111111111111111111111111110110 ;
b11110100000111111111 K
1W
b0 Y
1[
0\
b10 ]
0`
1b
0c
b1 f
0h
0m
1n
b11111111111111111111111111110110 o
b0 q
1r
0s
0u
0w
0x
b0 {
b1 |
1}
b100100 ~
#650000
0"!
05
0W
0}
#655000
1"!
b0 #!
1'
b1001000 '!
b0 (!
0)
b11111111111111111111111111111111 )!
0+
15
08
b101000 :
b0 ;
b1010 I
b11110100000111111110 K
0Q
1W
b0 Y
1[
0\
b1010 ^
0`
0b
b0 f
0h
b101000 i
b0 j
1m
0n
b0 q
0r
0s
0u
0w
0x
b0 {
b1 |
1}
b100100 ~
#660000
0"!
05
0W
0}
#665000
1"!
b0 #!
1(
1)
b1001000 *
15
b0 ;
b11110100000111111101 K
1Q
b1001000 R
1W
b0 Y
1[
0\
0`
0b
1c
b0 f
0h
0s
0u
0w
0x
b0 {
b1 |
1}
b101000 ~
#670000
0"!
05
0W
0}
#675000
1"!
b0 #!
0'
1+
b0 ,
15
18
b0 ;
b11110100000111111100 K
1W
b0 Y
1[
0\
b10 ]
0`
1b
0c
b1 f
0h
0m
1n
b0 o
b0 q
1r
0s
0u
0w
0x
b0 {
b1 |
1}
b101000 ~
#680000
0"!
05
0W
0}
